TidierDB.jl vs Ibis - TidierDB.jl
…
TidierDB

@chain mtcars begin
       @mutate(kpg = mpg * 1.61)
       @select(model, kpg)
       @collect
end

32×2 DataFrame
 Row │ model              kpg
     │ String?            Float64?
─────┼─────────────────────────────
   1 │ Mazda RX4            33.81
   2 │ Mazda RX4 Wag        33.81
   3 │ Datsun 710           36.708
   4 │ Hornet 4 Drive       34.454
   5 │ Hornet Sportabout    30.107
   6 │ Valiant              29.141
  ⋮  │         ⋮             ⋮
  27 │ Porsche 914-2        41.86
  28 │ Lotus Europa         48.944
  29 │ Ford Pantera L       25.438
  30 │ Ferrari Dino         31.717
  31 │ Maserati Bora        24.15
  32 │ Volvo 142E           34.454
                    20 rows omitted
…
While TidierDB uses @arrange like TidierData.jl

TidierDB

@chain mtcars @arrange(mpg) @collect

32×12 DataFrame
 Row │ model                mpg       cyl     disp      hp      drat      wt        qsec      vs      am      gear    carb
     │ String?              Float64?  Int64?  Float64?  Int64?  Float64?  Float64?  Float64?  Int64?  Int64?  Int64?  Int64?
─────┼───────────────────────────────────────────────────────────────────────────────────────────────────────────────────────
   1 │ Cadillac Fleetwood       10.4       8     472.0     205      2.93     5.25      17.98       0       0       3       4
   2 │ Lincoln Continental      10.4       8     460.0     215      3.0      5.424     17.82       0       0       3       4
   3 │ Camaro Z28               13.3       8     350.0     245      3.73     3.84      15.41       0       0       3       4
   4 │ Duster 360               14.3       8     360.0     245      3.21     3.57      15.84       0       0       3       4
   5 │ Chrysler Imperial        14.7       8     440.0     230      3.23     5.345     17.42       0       0       3       4
   6 │ Maserati Bora            15.0       8     301.0     335      3.54     3.57      14.6        0       1       5       8
  ⋮  │          ⋮              ⋮        ⋮        ⋮        ⋮        ⋮         ⋮         ⋮        ⋮       ⋮       ⋮       ⋮
  27 │ Porsche 914-2            26.0       4     120.3      91      4.43     2.14      16.7        0       1       5       2
  28 │ Fiat X1-9                27.3       4      79.0      66      4.08     1.935     18.9        1       1       4       1
  29 │ Honda Civic              30.4       4      75.7      52      4.93     1.615     18.52       1       1       4       2
  30 │ Lotus Europa             30.4       4      95.1     113      3.77     1.513     16.9        1       1       5       2
  31 │ Fiat 128                 32.4       4      78.7      66      4.08     2.2       19.47       1       1       4       1
  32 │ Toyota Corolla           33.9       4      71.1      65      4.22     1.835     19.9        1       1       4       1
                                                                                                              20 rows omitted
…
TidierDB does not require names to be prefixed and, like TidierData, tidy column selection with starts_with, ends_with, and contains is supported at base. TidierDB also supports providing column names as strings, although this would only be needed in the setting of renaming a column with a space in it.

TidierDB

@chain mtcars @select(starts_with("m"), "drat", wt) @collect

32×4 DataFrame
 Row │ model              mpg       drat      wt
     │ String?            Float64?  Float64?  Float64?
─────┼─────────────────────────────────────────────────
   1 │ Mazda RX4              21.0      3.9      2.62
   2 │ Mazda RX4 Wag          21.0      3.9      2.875
   3 │ Datsun 710             22.8      3.85     2.32
   4 │ Hornet 4 Drive         21.4      3.08     3.215
   5 │ Hornet Sportabout      18.7      3.15     3.44
   6 │ Valiant                18.1      2.76     3.46
  ⋮  │         ⋮             ⋮         ⋮         ⋮
  27 │ Porsche 914-2          26.0      4.43     2.14
  28 │ Lotus Europa           30.4      3.77     1.513
  29 │ Ford Pantera L         15.8      4.22     3.17
  30 │ Ferrari Dino           19.7      3.62     2.77
  31 │ Maserati Bora          15.0      3.54     3.57
  32 │ Volvo 142E             21.4      4.11     2.78
                                        20 rows omitted
…
TidierDB

@chain mtcars @rename(model_make = model) @select(model_make) @collect

32×1 DataFrame
 Row │ model_make
     │ String?
─────┼───────────────────
   1 │ Mazda RX4
   2 │ Mazda RX4 Wag
   3 │ Datsun 710
   4 │ Hornet 4 Drive
   5 │ Hornet Sportabout
   6 │ Valiant
  ⋮  │         ⋮
  27 │ Porsche 914-2
  28 │ Lotus Europa
  29 │ Ford Pantera L
  30 │ Ferrari Dino
  31 │ Maserati Bora
  32 │ Volvo 142E
          20 rows omitted
…
